# BEGIN HISTOGRAM /ATLAS_2012_I1084540/d04-x01-y01
AidaPath=/ATLAS_2012_I1084540/d04-x01-y01
0	0.2	0.4	7.82894e-05	9.29847e-08	9.29847e-08
0.4	0.6	0.8	5.9918e-05	8.13469e-08	8.13469e-08
0.8	1	1.2	4.17854e-05	6.79316e-08	6.79316e-08
1.2	1.4	1.6	3.00217e-05	5.75816e-08	5.75816e-08
1.6	1.8	2	2.25024e-05	4.98514e-08	4.98514e-08
2	2.1	2.2	1.87753e-05	6.4398e-08	6.4398e-08
2.2	2.3	2.4	1.66209e-05	6.05896e-08	6.05896e-08
2.4	2.5	2.6	1.48779e-05	5.73252e-08	5.73252e-08
2.6	2.7	2.8	1.34937e-05	5.45938e-08	5.45938e-08
2.8	2.9	3	1.22511e-05	5.20192e-08	5.20192e-08
3	3.1	3.2	1.10016e-05	4.92959e-08	4.92959e-08
3.2	3.3	3.4	9.96864e-06	4.69247e-08	4.69247e-08
3.4	3.5	3.6	9.08091e-06	4.4786e-08	4.4786e-08
3.6	3.7	3.8	8.22945e-06	4.26335e-08	4.26335e-08
3.8	3.9	4	7.58515e-06	4.09316e-08	4.09316e-08
4	4.1	4.2	7.14752e-06	3.97349e-08	3.97349e-08
4.2	4.3	4.4	6.72767e-06	3.85491e-08	3.85491e-08
4.4	4.5	4.6	6.4234e-06	3.76676e-08	3.76676e-08
4.6	4.7	4.8	6.11572e-06	3.67537e-08	3.67537e-08
4.8	4.9	5	6.01402e-06	3.64465e-08	3.64465e-08
5	5.1	5.2	5.92174e-06	3.61653e-08	3.61653e-08
5.2	5.3	5.4	5.80627e-06	3.58124e-08	3.58124e-08
5.4	5.5	5.6	5.83451e-06	3.58987e-08	3.58987e-08
5.6	5.7	5.8	6.06336e-06	3.65953e-08	3.65953e-08
5.8	5.9	6	6.60166e-06	3.81873e-08	3.81873e-08
6	6.1	6.2	7.73349e-06	4.13309e-08	4.13309e-08
6.2	6.3	6.4	9.84312e-06	4.66276e-08	4.66276e-08
6.4	6.5	6.6	1.25835e-05	5.27207e-08	5.27207e-08
6.6	6.7	6.8	1.47905e-05	5.7156e-08	5.7156e-08
6.8	6.9	7	1.50103e-05	5.758e-08	5.758e-08
7	7.1	7.2	1.35425e-05	5.4692e-08	5.4692e-08
7.2	7.3	7.4	1.16264e-05	5.06755e-08	5.06755e-08
7.4	7.5	7.6	9.65179e-06	4.61726e-08	4.61726e-08
7.6	7.7	7.8	7.97427e-06	4.19694e-08	4.19694e-08
7.8	7.9	8	6.85302e-06	3.8905e-08	3.8905e-08
# END HISTOGRAM

# BEGIN HISTOSTATS /ATLAS_2012_I1084540/d04-x01-y01
AidaPath=/ATLAS_2012_I1084540/d04-x01-y01
0	0.2	0.4	708920	3.13157660773067e-05	1.38338617351665e-15	6.26225482890858e-06	1.56542894924425e-06
0.4	0.6	0.8	542559	2.39671880704376e-05	1.05877043730109e-15	1.41625807590005e-05	8.60658108614767e-06
0.8	1	1.2	378373	1.67141600523802e-05	7.38352168647307e-16	1.65664946846926e-05	1.65859709175295e-05
1.2	1.4	1.6	271842	1.20086706896119e-05	5.30503019157825e-16	1.67208217939602e-05	2.3401393178346e-05
1.6	1.8	2	203760	9.00097915010267e-06	3.97626320078215e-16	1.61425391444218e-05	2.90399782650893e-05
2	2.1	2.2	85005	3.75506383239022e-06	1.65884051520042e-16	7.88563404801943e-06	1.65598315008407e-05
2.2	2.3	2.4	75254	3.32418926883723e-06	1.46844056665785e-16	7.64563531832592e-06	1.75849612321496e-05
2.4	2.5	2.6	67361	2.97558877681545e-06	1.31447333790282e-16	7.43897194203861e-06	1.85974298550964e-05
2.6	2.7	2.8	61093	2.69874316414234e-06	1.19219161484656e-16	7.28660654318411e-06	1.96738376665984e-05
2.8	2.9	3	55467	2.45021126692261e-06	1.08239795369831e-16	7.10561267407573e-06	2.06062767548187e-05
3	3.1	3.2	49809	2.20032967227301e-06	9.72035626255791e-17	6.8210219840462e-06	2.11451681505438e-05
3.2	3.3	3.4	45132	1.99372895424117e-06	8.80769574201088e-17	6.57930554899603e-06	2.17117083116863e-05
3.4	3.5	3.6	41114	1.8161823936755e-06	8.02312972786956e-17	6.35663837786425e-06	2.22482343225248e-05
3.6	3.7	3.8	37261	1.64589076631335e-06	7.27046232802043e-17	6.08979583535927e-06	2.25322445908297e-05
3.8	3.9	4	34342	1.51703090370671e-06	6.70158802366939e-17	5.91642052445631e-06	2.30740400453787e-05
4	4.1	4.2	32358	1.42950445892341e-06	6.31544446632121e-17	5.86096828158591e-06	2.40299699545023e-05
4.2	4.3	4.4	30459	1.34553311924584e-06	5.94412066953309e-17	5.7857924127572e-06	2.48789073748556e-05
4.4	4.5	4.6	29081	1.28468044157043e-06	5.67538517045052e-17	5.78106198706683e-06	2.60147789418008e-05
4.6	4.7	4.8	27689	1.22314482868682e-06	5.40334947386169e-17	5.74878069482801e-06	2.7019269265692e-05
4.8	4.9	5	27229	1.20280355688155e-06	5.31339690132399e-17	5.89373742871969e-06	2.88793134007263e-05
5	5.1	5.2	26812	1.18434830102046e-06	5.23171759349459e-17	6.04017633520426e-06	3.08048993095422e-05
5.2	5.3	5.4	26287	1.16125304812018e-06	5.13011692270328e-17	6.15464115503703e-06	3.26195981216959e-05
5.4	5.5	5.6	26416	1.16690244637131e-06	5.15485686893782e-17	6.41796345504218e-06	3.52987990027319e-05
5.6	5.7	5.8	27453	1.21267154648372e-06	5.35686956682816e-17	6.91222781495718e-06	3.93996985452567e-05
5.8	5.9	6	29887	1.32033284647288e-06	5.83309387955545e-17	7.78996379418995e-06	4.5960786385721e-05
6	6.1	6.2	35012	1.54669858274109e-06	6.83296193083981e-17	9.43486135472077e-06	5.75526542637953e-05
6.2	6.3	6.4	44565	1.96862330163581e-06	8.69652933303592e-17	1.24023268003058e-05	7.81346588419258e-05
6.4	6.5	6.6	56971	2.5166940851471e-06	1.11178690478329e-16	1.63585115534561e-05	0.000106330325097464
6.6	6.7	6.8	66966	2.95809341713506e-06	1.30672437054419e-16	1.98192258948051e-05	0.000132788813495193
6.8	6.9	7	67959	3.00205001312088e-06	1.32618296706406e-16	2.07141450905334e-05	0.000142927601124687
7	7.1	7.2	61315	2.70850917462058e-06	1.19648810948247e-16	1.9230415139807e-05	0.000136535947492629
7.2	7.3	7.4	52639	2.32527411219994e-06	1.02720089682138e-16	1.69745010190593e-05	0.000123913857439134
7.4	7.5	7.6	43698	1.93035790264706e-06	8.52763390294863e-17	1.4477684269853e-05	0.000108582632023898
7.6	7.7	7.8	36102	1.59485304773949e-06	7.04570833958819e-17	1.22803684675938e-05	9.45588372004754e-05
7.8	7.9	8	31029	1.370604564168e-06	6.05440045761202e-17	1.0827776056927e-05	8.55394308497263e-05
# END HISTOSTATS

# BEGIN METADATA 
beam=pp
crosssection=172278
cuts=atlas2012-pt-0.8
energy=7000
generator=herwig++
nevts=3900000
observable=eta_gap
params=-
process=uemb-soft
revision=%revision%
rivet=1.8.3
seed=106 104 94 92 88 84 82 80 74 72 70 68 66 64 62 60 58 56 54 52 50 48 46 42 40 38 36 34 32 28 22 20 18 14 12 10 6 4 2
specific=-
tune=default
version=2.4.2
# END METADATA

# BEGIN PLOT /ATLAS_2012_I1084540/d04-x01-y01
Title=Rapidity gap size in $\eta$ starting from $\eta = \pm 4.9$, $p_T > 800$ MeV
# END PLOT

